Getting Started with Benvos • rbenvo
…
Other packages

While the above descriptive statistics are nice, the real power of using benvos is that they offer functions like joinvo to easily join the subject and bef data frames, which can be useful in setting up the data for models in other packages. Below we’ll use the joinvo function, passing the benvo, bef character label, and TRUE to the tibble argument, denoting that we want a tibble object returned from the function.

joinvo(bdf,"FFR",tibble=T)
#> # A tibble: 9,550 x 4
#>       ID Distance   BMI   sex
#>    <dbl>    <dbl> <dbl> <int>
#>  1     1    0.773  28.9     1
#>  2     1    0.734  28.9     1
#>  3     1    0.997  28.9     1
#>  4     1    0.470  28.9     1
#>  5     1    0.523  28.9     1
#>  6     2    0.369  33.0     1
#>  7     2    0.533  33.0     1
#>  8     2    0.779  33.0     1
#>  9     2    0.723  33.0     1
#> 10     2    0.375  33.0     1
#> # … with 9,540 more rows
…
