Temporal_Benvos • rbenvo
…
bdf <- benvo(schools,
      start_date_col="open",
      measurement_date="measure",
      stop_date_col="close",by='cdscode') %>%
  add_BEF(RES,bef_id = 'osm_id')

bdf %>% activate(RES)
#> Active df:  RES
#> # A tibble: 1,271,598 x 9
#>    cdscode measure    open       close      open_RES   close_RES  osm_id Time 
#>    <chr>   <date>     <date>     <date>     <date>     <date>     <chr>  <drt>
#>  1 196473… 2019-05-01 2018-08-25 2019-05-01 2016-06-06 2019-05-02 40939… 249 …
#>  2 196473… 2019-05-01 2018-08-25 2019-05-01 2016-06-06 2020-06-04 42676… 249 …
#>  3 196473… 2019-05-01 2018-08-25 2019-05-01 2016-06-07 2019-07-16 37435… 249 …
#>  4 196473… 2019-05-01 2018-08-25 2019-05-01 2016-06-08 2019-07-16 43998… 249 …
#>  5 196473… 2019-05-01 2018-08-25 2019-05-01 2016-06-08 2020-04-11 73915… 249 …
#>  6 196473… 2019-05-01 2018-08-25 2019-05-01 2016-06-09 2018-09-27 42962…  33 …
#>  7 196473… 2019-05-01 2018-08-25 2019-05-01 2016-06-09 2018-12-02 35672…  99 …
#>  8 196473… 2019-05-01 2018-08-25 2019-05-01 2016-06-09 2019-12-02 43895… 249 …
#>  9 196473… 2019-05-01 2018-08-25 2019-05-01 2016-06-09 2020-09-15 41408… 249 …
#> 10 196473… 2019-05-01 2018-08-25 2019-05-01 2016-06-10 2020-02-01 42797… 249 …
#> # … with 1,271,588 more rows, and 1 more variable: exposure_lag <drtn>
…
